{
    "error_block_class"  : "peach-framework-error",
    "warning_block_class"  : "peach-framework-warning",
    "info_block_class"  : "peach-framework-info",
    "show_errors"    : true,
    "use_db"    : true,
    "db_params" : {
        "name"  : "belusluga",
        "login" : "belusluga",
        "password"  : "1234"
    },
    "template"  : "Starter",
    "language"  : "RU"
}